<svg width="41" height="40" viewBox="0 0 41 40" fill="none" xmlns="http://www.w3.org/2000/svg">
<circle cx="20.5" cy="20" r="20" fill="white"/>
<g clip-path="url(#clip0_1_1108)">
<path d="M8.91147 15.7172C10.0086 15.7172 12.2943 15.7172 13.0715 15.7172C13.2543 15.7172 13.3915 15.8069 13.4372 15.9414C14.3972 18.0034 15.5858 19.8414 16.9572 21.4552C17.0943 21.6345 17.3686 21.6345 17.46 21.4103C17.9172 20.3793 18.6943 17.8241 17.14 15.9862C17.0029 15.8069 17.0486 15.5827 17.2772 15.4931C18.8772 14.8207 20.4315 14.731 21.94 15.4034C22.26 15.5379 22.4886 15.8517 22.4886 16.2103L22.8543 21.4552C22.8543 21.6793 23.0829 21.8586 23.3115 21.8138C25.0486 21.4552 26.1 18.9 27.1058 16.2103C27.2429 15.8965 27.5629 15.6724 27.9286 15.6724H31.7686C32.0886 15.6724 32.3172 15.9414 32.2715 16.2552C31.9058 18.1379 29.94 20.6034 28.9343 21.8138C28.5686 22.2172 28.5686 22.8448 28.9343 23.2483L32.3629 27.2827C32.5915 27.5517 32.4086 28 31.9972 28H27.6543C27.2886 28 26.9686 27.8655 26.6943 27.5965L23.6315 25.131C23.4943 24.9517 23.1743 24.9069 23.0372 25.0862C22.6715 25.5345 22.6715 26.0724 22.4886 27.3724C22.4429 27.7758 22.0772 28.0448 21.6658 28.0448H18.6943C18.2829 28.0448 17.8715 27.9552 17.46 27.7758C15.8143 26.9689 11.1515 24.1448 8.50004 16.2552C8.45433 15.9862 8.63719 15.7172 8.91147 15.7172Z" fill="#252525"/>
</g>
<defs>
<clipPath id="clip0_1_1108">
<rect width="24" height="13" fill="white" transform="translate(8.5 15)"/>
</clipPath>
</defs>
</svg>
